{
	"id": "149b751c-d4bb-4323-a344-c97b6e39db3a",
	"name": "LOCAL",
	"values": [
		{
			"key": "base_url",
			"value": "localhost:8080",
			"type": "default",
			"enabled": true
		},
		{
			"key": "book_id",
			"value": "",
			"type": "any",
			"enabled": true
		}
	],
	"_postman_variable_scope": "environment",
	"_postman_exported_at": "2024-04-23T09:58:37.414Z",
	"_postman_exported_using": "Postman/10.24.22"
}